Metabolic Modelling - Tianyi@Oxford
…
\(K_\text{eq} = \dfrac{\text{[B]}}{\text{[A]}}\)

and keq_calc represents the \(K_\text{eq}\) calculated from the Haldane relationship:

\(K_\text{eq} = \dfrac{V_{max(f)}\cdot K_{m(p)}}{V_{max(r)}\cdot K_{m(s)}}\)

q1 <- read_tsv('metabolic modelling/q1.txt', col_names = c('vf', 'kmp', 'vr', 'kms', 'A', 'B'))
q1 <- q1 %>% mutate(
  keq = B/A,
  keq_calc = (vf * kmp) / (vr * kms),
  keq_diff = keq - keq_calc
)
q1

## # A tibble: 625 x 9
##       vf   kmp     vr   kms     A        B      keq keq_calc  keq_diff
##    <dbl> <dbl>  <dbl> <dbl> <dbl>    <dbl>    <dbl>    <dbl>     <dbl>
##  1  0.01  0.01   0.01  0.01 1     1         1         1       0.      
##  2  0.01  0.01   0.1   0.01 1.82  0.182     0.1       0.1     0.      
##  3  0.01  0.01   1     0.01 1.98  0.0198    0.01      0.01    0.      
##  4  0.01  0.01  10     0.01 2.00  0.00200   0.001     0.001   0.      
##  5  0.01  0.01 100     0.01 2.00  0.000200  0.00010   0.0001 -1.36e-20
##  6  0.1   0.01   0.01  0.01 0.182 1.82     10.0      10      -1.78e-15
##  7  0.1   0.01   0.1   0.01 1     1         1         1       0.      
##  8  0.1   0.01   1     0.01 1.82  0.182     0.1       0.1     0.      
##  9  0.1   0.01  10     0.01 1.98  0.0198    0.01      0.01    0.      
## 10  0.1   0.01 100     0.01 2.00  0.00200   0.001     0.001   0.      
## # … with 615 more rows
…
    c6 = F + G,
  ) %>% select(!(1:7))
q2_scan_r3_vf_cleaned <- tibble(
  reaction = integer(),
  displacement = double(),
  j = double()
  )
for (i in 1:6) {
  q2_scan_r3_vf_cleaned <- add_row(
    q2_scan_r3_vf_cleaned, 
    reaction = i, j = q2_scan_r3_vf[[paste0('j', i)]], displacement = q2_scan_r3_vf[[paste0('d', i)]])
}
q2_scan_r3_vf_cleaned 

## # A tibble: 6,006 x 3
##    reaction displacement            j
##       <int>        <dbl>        <dbl>
##  1        1         1.00 0.0000000343
##  2        1         1.00 0.0000000353
##  3        1         1.00 0.0000000363
##  4        1         1.00 0.0000000373
##  5        1         1.00 0.0000000383
##  6        1         1.00 0.0000000394
##  7        1         1.00 0.0000000405
##  8        1         1.00 0.0000000416
##  9        1         1.00 0.0000000428
## 10        1         1.00 0.0000000440
## # … with 5,996 more rows
…
